<?xml version="1.0" encoding="utf-8"?>
<!-- Generator: Adobe Illustrator 18.0.0, SVG Export Plug-In . SVG Version: 6.00 Build 0)  -->
<!DOCTYPE svg PUBLIC "-//W3C//DTD SVG 1.1//EN" "http://www.w3.org/Graphics/SVG/1.1/DTD/svg11.dtd">
<svg version="1.1" id="Layer_1" xmlns="http://www.w3.org/2000/svg" xmlns:xlink="http://www.w3.org/1999/xlink" x="0px" y="0px"
	 viewBox="0 0 60 60" enable-background="new 0 0 60 60" xml:space="preserve">
<path d="M52.9,27.4H32.4V6.8c0-1.1-0.9-2-2-2s-2,0.9-2,2v20.6H7.8c-1.1,0-2,0.9-2,2c0,1.1,0.9,2,2,2h20.6v20.6c0,1.1,0.9,2,2,2
	s2-0.9,2-2V31.4h20.6c1.1,0,2-0.9,2-2C54.9,28.3,54,27.4,52.9,27.4z"/>
</svg>
