<?xml version="1.0" encoding="utf-8"?>
<!-- Generator: Adobe Illustrator 18.0.0, SVG Export Plug-In . SVG Version: 6.00 Build 0)  -->
<!DOCTYPE svg PUBLIC "-//W3C//DTD SVG 1.1//EN" "http://www.w3.org/Graphics/SVG/1.1/DTD/svg11.dtd">
<svg version="1.1" id="Layer_1" xmlns="http://www.w3.org/2000/svg" xmlns:xlink="http://www.w3.org/1999/xlink" x="0px" y="0px"
	 viewBox="0 0 60 60" enable-background="new 0 0 60 60" xml:space="preserve">
<g>
	<g>
		<g>
			<path d="M51,20.4H9.1c-1.1,0-2-0.9-2-2s0.9-2,2-2H51c1.1,0,2,0.9,2,2S52.1,20.4,51,20.4z"/>
		</g>
		<g>
			<path d="M51,32.5H9.1c-1.1,0-2-0.9-2-2s0.9-2,2-2H51c1.1,0,2,0.9,2,2S52.1,32.5,51,32.5z"/>
		</g>
		<g>
			<path d="M51,44.6H9.1c-1.1,0-2-0.9-2-2s0.9-2,2-2H51c1.1,0,2,0.9,2,2S52.1,44.6,51,44.6z"/>
		</g>
	</g>
</g>
</svg>
